<svg width="16" height="15" viewBox="0 0 16 15" fill="none" xmlns="http://www.w3.org/2000/svg">
<path d="M9.6411 2.6804C9.64107 2.04629 9.86585 1.4327 10.2755 0.948684C10.6852 0.464668 11.2532 0.141576 11.8786 0.0368274C12.504 -0.0679214 13.1463 0.0524585 13.6913 0.376573C14.2363 0.700688 14.6487 1.20754 14.8553 1.80706C15.0619 2.40657 15.0492 3.05992 14.8196 3.65097C14.5899 4.24203 14.1581 4.73252 13.6009 5.03526C13.0438 5.338 12.3973 5.43339 11.7764 5.30448C11.1556 5.17557 10.6005 4.8307 10.2099 4.33116L5.26512 6.80357C5.38715 7.25866 5.38715 7.73786 5.26512 8.19296L10.2121 10.6675C10.6221 10.1456 11.2112 9.79455 11.8654 9.68237C12.5195 9.57019 13.1919 9.70489 13.7524 10.0604C14.3129 10.4158 14.7214 10.9667 14.8987 11.6063C15.0761 12.2458 15.0096 12.9284 14.7123 13.5217C14.415 14.1151 13.9079 14.5769 13.2894 14.8176C12.671 15.0583 11.9851 15.0609 11.3649 14.8247C10.7447 14.5885 10.2343 14.1304 9.9326 13.5392C9.63093 12.9481 9.5595 12.266 9.73216 11.6252L4.78521 9.15064C4.44135 9.58899 3.96935 9.90919 3.43493 10.0666C2.90052 10.2241 2.3303 10.2109 1.80371 10.029C1.27711 9.84715 0.820357 9.50555 0.497054 9.05183C0.173751 8.59811 0 8.05485 0 7.49773C0 6.9406 0.173751 6.39735 0.497054 5.94362C0.820357 5.4899 1.27711 5.1483 1.80371 4.9664C2.3303 4.78451 2.90052 4.77137 3.43493 4.92882C3.96935 5.08627 4.44135 5.40647 4.78521 5.84482L9.73109 3.37348C9.67101 3.14736 9.64076 2.91436 9.6411 2.6804ZM12.3213 1.07141C11.8947 1.07141 11.4856 1.24087 11.184 1.54251C10.8823 1.84415 10.7129 2.25327 10.7129 2.67986C10.7129 3.10645 10.8823 3.51557 11.184 3.81721C11.4856 4.11885 11.8947 4.28831 12.3213 4.28831C12.7479 4.28831 13.157 4.11885 13.4587 3.81721C13.7603 3.51557 13.9298 3.10645 13.9298 2.67986C13.9298 2.25327 13.7603 1.84415 13.4587 1.54251C13.157 1.24087 12.7479 1.07141 12.3213 1.07141ZM12.3192 10.7125C11.893 10.7125 11.4843 10.8818 11.183 11.1831C10.8816 11.4845 10.7123 11.8932 10.7123 12.3193C10.7123 12.7455 10.8816 13.1542 11.183 13.4556C11.4843 13.7569 11.893 13.9262 12.3192 13.9262C12.7453 13.9262 13.1541 13.7569 13.4554 13.4556C13.7567 13.1542 13.926 12.7455 13.926 12.3193C13.926 11.8932 13.7567 11.4845 13.4554 11.1831C13.1541 10.8818 12.7453 10.7125 12.3192 10.7125ZM1.07125 7.4988C1.07125 7.70981 1.11281 7.91876 1.19356 8.11371C1.27431 8.30866 1.39267 8.4858 1.54188 8.63501C1.69109 8.78422 1.86823 8.90258 2.06318 8.98333C2.25813 9.06408 2.46708 9.10565 2.6781 9.10565C2.88911 9.10565 3.09806 9.06408 3.29301 8.98333C3.48796 8.90258 3.6651 8.78422 3.81431 8.63501C3.96352 8.4858 4.08188 8.30866 4.16263 8.11371C4.24338 7.91876 4.28495 7.70981 4.28495 7.4988C4.28495 7.07264 4.11565 6.66393 3.81431 6.36258C3.51297 6.06124 3.10426 5.89195 2.6781 5.89195C2.25193 5.89195 1.84323 6.06124 1.54188 6.36258C1.24054 6.66393 1.07125 7.07264 1.07125 7.4988Z" fill="#777777"/>
</svg>
