<svg width="15" height="15" viewBox="0 0 15 15" fill="none" xmlns="http://www.w3.org/2000/svg">
<path d="M13.8186 15C6.20253 15 0 8.8045 0 1.18143C0 0.534458 0.534458 0 1.18143 0H3.94515C4.59916 0 5.13362 0.534458 5.13362 1.18143C5.13362 2.1097 5.27426 3.01688 5.56259 3.88186C5.6962 4.31083 5.58368 4.77497 5.26723 5.08439L4.01547 6.75106C5.04219 8.69198 6.29395 9.94374 8.24895 10.9845L9.95077 9.69761C10.225 9.41632 10.7032 9.3038 11.1252 9.45148C11.9831 9.73277 12.8903 9.88045 13.8186 9.88045C14.4726 9.88045 15 10.4149 15 11.0619V13.8186C15 14.4726 14.4726 15 13.8186 15ZM1.18143 0.787623C0.963432 0.787623 0.787623 0.963432 0.787623 1.18143C0.787623 8.3685 6.6315 14.2124 13.8186 14.2124C14.0366 14.2124 14.2124 14.0366 14.2124 13.8186V11.0619C14.2124 10.8439 14.0366 10.6681 13.8186 10.6681C12.8129 10.6681 11.8214 10.5134 10.872 10.1969C10.7314 10.1477 10.5767 10.1899 10.4712 10.2883L8.53024 11.7651C8.41069 11.8565 8.24895 11.8706 8.11533 11.8003C5.80169 10.6118 4.37412 9.19128 3.20675 6.8917C3.1294 6.75809 3.14346 6.59634 3.23488 6.47679L4.67651 4.57103C4.82419 4.42335 4.85935 4.26864 4.81013 4.12096C4.5007 3.18565 4.34599 2.19409 4.34599 1.18143C4.34599 0.963432 4.17018 0.787623 3.95218 0.787623H1.18143Z" fill="#777777"/>
</svg>
